["detail_response":{
  "businessLicenseNumber": "9135072459788424XQ",
  "businessPerson": "徐文胜",
  "certStr": "一般液态单元（啫喱类、护发清洁类）；膏霜乳液单元（护肤清洁类）；粉单元（块状粉类、散粉类）；蜡基单元（蜡基类）",
  "cityCode": "",
  "countyCode": "",
  "creatUser": "",
  "createTime": "",
  "endTime": "",
  "epsAddress": "松溪县经济技术开发区",
  "epsName": "福建金亿文化用品有限公司",
  "epsProductAddress": "福建省南平市松溪县松源街道办事处经济技术开发区中天路8号",
  "id": "",
  "isimport": "N",
  "legalPerson": "徐文胜",
  "offDate": "",
  "offReason": "",
  "parentid": "",
  "preid": "",
  "processid": "202111171018542027xjhn",
  "productSn": "闽妆20170002",
  "provinceCode": "",
  "qfDate": "",
  "qfManagerName": "福建省药品监督管理局",
  "qualityPerson": "沈金娟",
  "rcManagerDepartName": "南平市松溪县市场监督管理局",
  "rcManagerUser": "林银良；陈芬丽；陈淑青",
  "startTime": "",
  "warehouseAddress": "",
  "xkCompleteDate": null,
  "xkDate": "2027-01-05",
  "xkDateStr": "2022-01-05",
  "xkName": "俞开海",
  "xkProject": "",
  "xkRemark": "",
  "xkType": "202"
}
"list_response":{
  "filesize": "",
  "keyword": "",
  "list": [
    {
      "ID": "2a1c6c0fac214252b2c70a02d165b246",
      "EPS_NAME": "珠海市东部太初化妆品有限公司",
      "PRODUCT_SN": "粤妆20161761",
      "CITY_CODE": null,
      "XK_COMPLETE_DATE": {
        "date": 14,
        "day": 2,
        "hours": 0,
        "minutes": 0,
        "month": 11,
        "nanos": 0,
        "seconds": 0,
        "time": 1639411200000,
        "timezoneOffset": -480,
        "year": 121
      },
      "XK_DATE": "2026-12-13",
      "QF_MANAGER_NAME": "广东省药品监督管理局",
      "BUSINESS_LICENSE_NUMBER": "91440400707985915B",
      "XC_DATE": "2021-12-14",
      "NUM_": 1
    },
    {
      "ID": "e063506500fb497dba8954e9c513bd3d",
      "EPS_NAME": "汕头市雅蜜实业有限公司",
      "PRODUCT_SN": "粤妆20161672",
      "CITY_CODE": null,
      "XK_COMPLETE_DATE": {
        "date": 9,
        "day": 4,
        "hours": 0,
        "minutes": 0,
        "month": 11,
        "nanos": 0,
        "seconds": 0,
        "time": 1638979200000,
        "timezoneOffset": -480,
        "year": 121
      },
      "XK_DATE": "2026-12-08",
      "QF_MANAGER_NAME": "广东省药品监督管理局",
      "BUSINESS_LICENSE_NUMBER": "91440514714811964M",
      "XC_DATE": "2021-12-09",
      "NUM_": 2
    },
    {
      "ID": "f9889649be9f4a2ab582b14cc92c7948",
      "EPS_NAME": "广州市韵丽生物科技有限公司",
      "PRODUCT_SN": "粤妆20161650",
      "CITY_CODE": null,
      "XK_COMPLETE_DATE": {
        "date": 7,
        "day": 2,
        "hours": 0,
        "minutes": 0,
        "month": 11,
        "nanos": 0,
        "seconds": 0,
        "time": 1638806400000,
        "timezoneOffset": -480,
        "year": 121
      },
      "XK_DATE": "2026-09-05",
      "QF_MANAGER_NAME": "广东省药品监督管理局",
      "BUSINESS_LICENSE_NUMBER": "91440111321057470M",
      "XC_DATE": "2021-12-07",
      "NUM_": 3
    },
    {
      "ID": "89b45cf0d8c3484fa7720604e9a85291",
      "EPS_NAME": "广州市奥云日化用品有限公司",
      "PRODUCT_SN": "粤妆20161449",
      "CITY_CODE": null,
      "XK_COMPLETE_DATE": {
        "date": 7,
        "day": 2,
        "hours": 0,
        "minutes": 0,
        "month": 11,
        "nanos": 0,
        "seconds": 0,
        "time": 1638806400000,
        "timezoneOffset": -480,
        "year": 121
      },
      "XK_DATE": "2026-07-25",
      "QF_MANAGER_NAME": "广东省药品监督管理局",
      "BUSINESS_LICENSE_NUMBER": "91440111677776900N",
      "XC_DATE": "2021-12-07",
      "NUM_": 4
    },
    {
      "ID": "20b470374a494c0e81e48a8b81d4fe3c",
      "EPS_NAME": "广东韵莉化妆品有限公司",
      "PRODUCT_SN": "粤妆20161663",
      "CITY_CODE": null,
      "XK_COMPLETE_DATE": {
        "date": 6,
        "day": 1,
        "hours": 0,
        "minutes": 0,
        "month": 11,
        "nanos": 0,
        "seconds": 0,
        "time": 1638720000000,
        "timezoneOffset": -480,
        "year": 121
      },
      "XK_DATE": "2026-12-25",
      "QF_MANAGER_NAME": "广东省药品监督管理局",
      "BUSINESS_LICENSE_NUMBER": "914413026179134243",
      "XC_DATE": "2021-12-06",
      "NUM_": 5
    },
    {
      "ID": "b9b71f3b5cb747fc82594f9004363012",
      "EPS_NAME": "深圳市萨希曼化妆品有限公司",
      "PRODUCT_SN": "粤妆20161569",
      "CITY_CODE": null,
      "XK_COMPLETE_DATE": {
        "date": 6,
        "day": 1,
        "hours": 0,
        "minutes": 0,
        "month": 11,
        "nanos": 0,
        "seconds": 0,
        "time": 1638720000000,
        "timezoneOffset": -480,
        "year": 121
      },
      "XK_DATE": "2026-12-05",
      "QF_MANAGER_NAME": "广东省药品监督管理局",
      "BUSINESS_LICENSE_NUMBER": "914403003579014853",
      "XC_DATE": "2021-12-06",
      "NUM_": 6
    },
    {
      "ID": "e0d91bbf627b45ca91051f70cef274ff",
      "EPS_NAME": "汕头市华丽斯日用化妆品有限公司",
      "PRODUCT_SN": "粤妆20161666",
      "CITY_CODE": null,
      "XK_COMPLETE_DATE": {
        "date": 2,
        "day": 4,
        "hours": 0,
        "minutes": 0,
        "month": 11,
        "nanos": 0,
        "seconds": 0,
        "time": 1638374400000,
        "timezoneOffset": -480,
        "year": 121
      },
      "XK_DATE": "2026-12-01",
      "QF_MANAGER_NAME": "广东省药品监督管理局",
      "BUSINESS_LICENSE_NUMBER": "91440511193078188X",
      "XC_DATE": "2021-12-02",
      "NUM_": 7
    },
    {
      "ID": "8541ca82676a4701bbba66fbb8633ebe",
      "EPS_NAME": "汕头市澄海区舒琪精细化工有限公司",
      "PRODUCT_SN": "粤妆20161677",
      "CITY_CODE": null,
      "XK_COMPLETE_DATE": {
        "date": 1,
        "day": 3,
        "hours": 0,
        "minutes": 0,
        "month": 11,
        "nanos": 0,
        "seconds": 0,
        "time": 1638288000000,
        "timezoneOffset": -480,
        "year": 121
      },
      "XK_DATE": "2026-11-30",
      "QF_MANAGER_NAME": "广东省药品监督管理局",
      "BUSINESS_LICENSE_NUMBER": "914405157224830087",
      "XC_DATE": "2021-12-01",
      "NUM_": 8
    },
    {
      "ID": "7d1d20ac6c464618b2048f2c2b5abdf4",
      "EPS_NAME": "潮州市潮安区润馨化妆品有限公司",
      "PRODUCT_SN": "粤妆20161629",
      "CITY_CODE": null,
      "XK_COMPLETE_DATE": {
        "date": 29,
        "day": 1,
        "hours": 0,
        "minutes": 0,
        "month": 10,
        "nanos": 0,
        "seconds": 0,
        "time": 1638115200000,
        "timezoneOffset": -480,
        "year": 121
      },
      "XK_DATE": "2026-11-28",
      "QF_MANAGER_NAME": "广东省药品监督管理局",
      "BUSINESS_LICENSE_NUMBER": "91445103061480642L",
      "XC_DATE": "2021-11-29",
      "NUM_": 9
    },
    {
      "ID": "859445dc4ec742c588a1d637ed3e4495",
      "EPS_NAME": "茂名轩影化妆品实业有限公司",
      "PRODUCT_SN": "粤妆20161614",
      "CITY_CODE": null,
      "XK_COMPLETE_DATE": {
        "date": 29,
        "day": 1,
        "hours": 0,
        "minutes": 0,
        "month": 10,
        "nanos": 0,
        "seconds": 0,
        "time": 1638115200000,
        "timezoneOffset": -480,
        "year": 121
      },
      "XK_DATE": "2026-11-28",
      "QF_MANAGER_NAME": "广东省药品监督管理局",
      "BUSINESS_LICENSE_NUMBER": "91440900758342442Y",
      "XC_DATE": "2021-11-29",
      "NUM_": 10
    },
    {
      "ID": "2fca0d094e2c40d19ff9513a43e50712",
      "EPS_NAME": "广州慕姬雅生物科技有限公司",
      "PRODUCT_SN": "粤妆20161770",
      "CITY_CODE": null,
      "XK_COMPLETE_DATE": {
        "date": 26,
        "day": 5,
        "hours": 0,
        "minutes": 0,
        "month": 10,
        "nanos": 0,
        "seconds": 0,
        "time": 1637856000000,
        "timezoneOffset": -480,
        "year": 121
      },
      "XK_DATE": "2026-08-31",
      "QF_MANAGER_NAME": "广东省药品监督管理局",
      "BUSINESS_LICENSE_NUMBER": "91440111MA59D3425X",
      "XC_DATE": "2021-11-26",
      "NUM_": 11
    },
    {
      "ID": "0424f1f7256e49b18a25fe557db8ab88",
      "EPS_NAME": "汕头康洁日化实业有限公司",
      "PRODUCT_SN": "粤妆20161381",
      "CITY_CODE": null,
      "XK_COMPLETE_DATE": {
        "date": 26,
        "day": 5,
        "hours": 0,
        "minutes": 0,
        "month": 10,
        "nanos": 0,
        "seconds": 0,
        "time": 1637856000000,
        "timezoneOffset": -480,
        "year": 121
      },
      "XK_DATE": "2026-11-25",
      "QF_MANAGER_NAME": "广东省药品监督管理局",
      "BUSINESS_LICENSE_NUMBER": "91440514632864544M",
      "XC_DATE": "2021-11-26",
      "NUM_": 12
    },
    {
      "ID": "0a3ab0232de2433dad46261069c1c76d",
      "EPS_NAME": "广州澜蔻化妆品有限公司",
      "PRODUCT_SN": "粤妆20161356",
      "CITY_CODE": null,
      "XK_COMPLETE_DATE": {
        "date": 26,
        "day": 5,
        "hours": 0,
        "minutes": 0,
        "month": 10,
        "nanos": 0,
        "seconds": 0,
        "time": 1637856000000,
        "timezoneOffset": -480,
        "year": 121
      },
      "XK_DATE": "2026-08-31",
      "QF_MANAGER_NAME": "广东省药品监督管理局",
      "BUSINESS_LICENSE_NUMBER": "91440101596182748N",
      "XC_DATE": "2021-11-26",
      "NUM_": 13
    },
    {
      "ID": "c3e96893672c486dae07230afa895e85",
      "EPS_NAME": "广州市可秀化妆品有限公司",
      "PRODUCT_SN": "粤妆20161340",
      "CITY_CODE": null,
      "XK_COMPLETE_DATE": {
        "date": 26,
        "day": 5,
        "hours": 0,
        "minutes": 0,
        "month": 10,
        "nanos": 0,
        "seconds": 0,
        "time": 1637856000000,
        "timezoneOffset": -480,
        "year": 121
      },
      "XK_DATE": "2026-08-31",
      "QF_MANAGER_NAME": "广东省药品监督管理局",
      "BUSINESS_LICENSE_NUMBER": "91440111687693607L",
      "XC_DATE": "2021-11-26",
      "NUM_": 14
    },
    {
      "ID": "b68fd2dce2484102aece82d0d19cd473",
      "EPS_NAME": "广州楚美化妆品科技有限公司",
      "PRODUCT_SN": "粤妆20161335",
      "CITY_CODE": null,
      "XK_COMPLETE_DATE": {
        "date": 26,
        "day": 5,
        "hours": 0,
        "minutes": 0,
        "month": 10,
        "nanos": 0,
        "seconds": 0,
        "time": 1637856000000,
        "timezoneOffset": -480,
        "year": 121
      },
      "XK_DATE": "2026-08-23",
      "QF_MANAGER_NAME": "广东省药品监督管理局",
      "BUSINESS_LICENSE_NUMBER": "91440111565953490R",
      "XC_DATE": "2021-11-26",
      "NUM_": 15
    }
  ],
  "orderBy": "createDate",
  "orderType": "desc",
  "pageCount": 48,
  "pageNumber": 1,
  "pageSize": 15,
  "property": "",
  "totalCount": 710
}
]
